R Notebook
…
Parte III - Manipulación de datos con dplyr

#Nuevas variables con mutate
proyectos = proyectos %>%
  mutate(productividad = (publicaciones/investigadores), intensidad_investigacion = (investigadores/duracion_meses), indice_resultados = ((publicaciones + (2 * patentes))/presupuesto_usd))

head(proyectos)

#Presupuesto promedio por pais y area tecnologica
presupuesto_pais_area = proyectos %>% group_by(pais, area_tecnologica) %>%
  summarize(presupuesto_promedio = mean(presupuesto_usd, na.rm = TRUE), .groups = "drop")

print(presupuesto_pais_area)

# A tibble: 84 × 3
   pais      area_tecnologica        presupuesto_promedio
   <chr>     <chr>                                  <dbl>
 1 Argentina Agrotecnologia                      1337107.
 2 Argentina Biotecnologia                        595961.
 3 Argentina Ciberseguridad                      1488167.
 4 Argentina Energia Renovable                    645717.
 5 Argentina Inteligencia Artificial              566304.
 6 Argentina Nanotecnologia                       726604 
 7 Argentina Salud Digital                       1212449.
 8 Bolivia   Agrotecnologia                       988256.
 9 Bolivia   Biotecnologia                       1267744.
10 Bolivia   Ciberseguridad                      1240533.
# ℹ 74 more rows
# ℹ Use `print(n = ...)` to see more rows
…
#Productividad promedio por area tecnologica y nivel de impacto
productividad_area_impacto = proyectos %>% group_by(area_tecnologica, impacto) %>%
  summarize(productividad_promedio = mean(productividad, na.rm = TRUE), .groups = "drop")

print(productividad_area_impacto)

# A tibble: 21 × 3
   area_tecnologica  impacto productividad_promedio
   <chr>             <chr>                    <dbl>
 1 Agrotecnologia    Alto                     0.540
 2 Agrotecnologia    Bajo                     0.470
 3 Agrotecnologia    Medio                    0.584
 4 Biotecnologia     Alto                     0.725
 5 Biotecnologia     Bajo                     0.776
 6 Biotecnologia     Medio                    0.389
 7 Ciberseguridad    Alto                     0.355
 8 Ciberseguridad    Bajo                     0.734
 9 Ciberseguridad    Medio                    0.465
10 Energia Renovable Alto                     0.996
# ℹ 11 more rows
# ℹ Use `print(n = ...)` to see more rows
…
